#auto generated file!
180.0;155;56;39
186.0;143;70;37
192.0;143;70;37
198.0;142;66;42
204.0;137;69;44
210.0;137;70;43
216.0;140;68;42
222.0;136;70;44
228.0;136;68;46
234.0;133;73;44
240.0;142;68;40
246.0;142;66;42
252.0;141;67;42
258.0;140;61;49
264.0;136;67;47
270.0;139;70;41
276.0;140;71;39
282.0;150;67;33
288.0;145;71;34
294.0;142;74;34
300.0;146;70;34
306.0;145;71;34
312.0;148;70;32
318.0;141;75;34
324.0;139;79;32
330.0;148;69;33
336.0;156;68;26
342.0;152;74;24
348.0;152;71;27
354.0;152;71;27
360.0;145;76;29
366.0;149;73;28
372.0;148;72;30
378.0;142;74;34
384.0;141;73;36
390.0;137;73;40
396.0;136;74;40
402.0;136;74;40
408.0;138;70;42
414.0;145;67;38
420.0;147;65;38
426.0;146;65;39
432.0;149;68;33
438.0;147;67;36
444.0;153;64;33
450.0;152;62;36
456.0;149;64;37
462.0;146;72;32
468.0;138;73;39
474.0;138;79;33
480.0;132;83;35
486.0;134;82;34
492.0;130;82;38
498.0;131;74;45
504.0;135;71;44
510.0;135;61;54
516.0;139;64;47
522.0;142;67;41
528.0;141;72;37
534.0;143;67;40
540.0;141;66;43
546.0;141;67;42
552.0;139;71;40
558.0;135;75;40
564.0;134;73;43
570.0;135;71;44
576.0;142;69;39
582.0;146;68;36
588.0;144;70;36
594.0;146;70;34
600.0;139;77;34
606.0;140;80;30
612.0;140;78;32
618.0;138;75;37
624.0;138;68;44
630.0;135;79;36
636.0;136;80;34
642.0;134;77;39
648.0;127;83;40
654.0;131;78;41
660.0;140;71;39
666.0;137;68;45
672.0;135;74;41
678.0;134;78;38
684.0;129;80;41
690.0;130;79;41
696.0;127;81;42
702.0;131;88;31
708.0;130;86;34
714.0;132;75;43
720.0;131;71;48
726.0;129;76;45
732.0;134;76;40
738.0;135;74;41
744.0;133;77;40
750.0;130;76;44
756.0;135;70;45
762.0;138;65;47
768.0;145;66;39
774.0;152;68;30
780.0;156;64;30
786.0;152;68;30
792.0;148;71;31
798.0;141;72;37
804.0;136;75;39
810.0;133;76;41
816.0;133;82;35
822.0;137;78;35
828.0;138;82;30
834.0;136;82;32
840.0;134;80;36
846.0;134;79;37
852.0;136;78;36
858.0;141;65;44
864.0;155;59;36
870.0;154;59;37
876.0;157;59;34
882.0;158;65;27
888.0;160;62;28
894.0;161;63;26
900.0;160;63;27
906.0;155;61;34
912.0;159;61;30
918.0;159;63;28
924.0;161;62;27
930.0;165;55;30
936.0;164;60;26
942.0;163;70;17
948.0;160;68;22
954.0;162;64;24
960.0;162;61;27
966.0;157;59;34
972.0;156;63;31
978.0;162;61;27
984.0;162;60;28
990.0;160;65;25
996.0;156;63;31
1002.0;148;70;32
1008.0;149;66;35
1014.0;145;70;35
1020.0;148;65;37
1026.0;148;65;37
1032.0;151;63;36
1038.0;157;62;31
1044.0;161;55;34
1050.0;157;56;37
1056.0;156;57;37
1062.0;151;60;39
1068.0;154;56;40
1074.0;159;59;32
1080.0;159;58;33
1086.0;154;59;37
1092.0;153;63;34
1098.0;161;58;31
1104.0;158;58;34
1110.0;150;58;42
1116.0;155;58;37
1122.0;158;61;31
1128.0;159;61;30
1134.0;145;68;37
1140.0;149;68;33
1146.0;149;62;39
1152.0;154;63;33
1158.0;152;63;35
1164.0;151;63;36
1170.0;150;63;37
1176.0;154;61;35
1182.0;157;64;29
1188.0;156;64;30
1194.0;159;61;30
1200.0;157;61;32
1206.0;153;58;39
1212.0;159;57;34
1218.0;163;54;33
1224.0;161;56;33
1230.0;152;55;43
1236.0;151;57;42
1242.0;155;57;38
1248.0;156;61;33
1254.0;154;59;37
1260.0;152;64;34
1266.0;149;65;36
1272.0;148;60;42
1278.0;144;61;45
1284.0;142;68;40
1290.0;143;67;40
1296.0;145;76;29
1302.0;142;78;30
1308.0;140;83;27
1314.0;140;79;31
1320.0;145;78;27
1326.0;146;74;30
1332.0;150;70;30
1338.0;148;73;29
1344.0;147;70;33
1350.0;146;72;32
1356.0;151;72;27
1362.0;150;69;31
1368.0;150;69;31
1374.0;145;75;30
1380.0;138;84;28
1386.0;128;88;34
1392.0;129;86;35
1398.0;125;87;38
1404.0;122;91;37
1410.0;134;78;38
1416.0;134;71;45
1422.0;129;77;44
1428.0;128;81;41
1434.0;125;78;47
1440.0;129;71;50
1446.0;136;78;36
1452.0;138;70;42
1458.0;141;65;44
1464.0;139;64;47
1470.0;136;68;46
1476.0;135;68;47
1482.0;135;65;50
1488.0;134;68;48
1494.0;133;77;40
