#auto generated file!
9101;255;11;0;0.9856233267155666;0.9719406435162387;0.013682683199320174;0.0;0.0;3;252
9101;255;11;0;0.9856233267155666;0.9719406435162387;0.0;5.63420348058902;3
0;0;0;0;0.0;0.0;0.0;0.0;0
0;0;0;0;0;0;0;0;0
0.013682683199320174;0.0;0.0;0;0;0
