#auto generated file!
275;3;0;0;0.5571862955582177;0.47890626513888246;0.07828003041933623;0.0;0.0;0;3
222;2;0;0;0.43753451936159843;0.4239580915643335;0.0;1.2776104417670682;0
53;1;0;0;1.0583692071742459;0.7090665393568018;0.0;0.06375502008032129;0
0;0;0;0;0;0;0;0;0
0.013576427797265308;0.0;0.34930266781744435;0;0;0
