#auto generated file!
763;11;0;0;0.4195951132092964;0.4059627285591693;0.013632384650127435;0.0;0.0;0;11
763;11;0;0;0.4195951132092964;0.4059627285591693;0.0;3.4521419009370824;0
0;0;0;0;0.0;0.0;0.0;0.0;0
0;0;0;0;0;0;0;0;0
0.013632384650127435;0.0;0.0;0;0;0
