#auto generated file!
526;9;0;0;0.5417984236025724;0.4704011855758482;0.07139723802672399;0.0;0.0;0;9
448;7;0;0;0.4683299840042154;0.4453946085194773;0.0;2.794511378848727;0
78;2;0;0;0.9637709997572381;0.614028705079106;0.0;0.06526104417670683;0
0;0;0;0;0;0;0;0;0
0.02293537548473771;0.0;0.34974229467813234;0;0;0
