#auto generated file!
25885;764;21;0;0.9731183327227059;0.9132619654011433;0.05985636732156606;0.0;0.0;0;764
23019;725;20;0;1.0341380903212083;1.0109003218445167;0.0;16.284303882195445;0
2866;39;1;0;0.4830227988218297;0.1290549427318929;0.0;0.17118473895582328;0
0;0;0;0;0;0;0;0;0
0.02323776847669508;0.0;0.3539678560899339;0;0;0
