#auto generated file!
202;8;0;0;0.53142496031974;0.5176796966415199;0.013745263678219507;0.0;0.0;6;2
202;8;0;0;0.53142496031974;0.5176796966415199;0.0;17.566097724230254;6
0;0;0;0;0.0;0.0;0.0;0.0;0
0;0;0;0;0;0;0;0;0
0.013745263678219507;0.0;0.0;0;0;0
