#auto generated file!
1778;78;0;0;1.007659315869734;0.9939163471578651;0.013742968711868123;0.0;0.0;26;52
1778;78;0;0;1.007659315869734;0.9939163471578651;0.0;17.566097724230254;26
0;0;0;0;0.0;0.0;0.0;0.0;0
0;0;0;0;0;0;0;0;0
0.013742968711868123;0.0;0.0;0;0;0
