#auto generated file!
653;94;0;0;0.6232192580600198;0.5227101045970713;0.10050915346294804;0.0;0.0;86;8
487;94;0;0;0.6764298644571225;0.6623784014971514;0.0;41.077643908969215;86
166;0;0;0;0.4671134429070738;0.11296034200467173;0.0;0.19578313253012047;0
0;0;0;0;0;0;0;0;0
0.01405146295997191;0.0;0.35415310090240204;0;0;0
