#auto generated file!
2366;62;0;0;0.8900931094510499;0.8155617793486769;0.07453133010238057;0.0;0.0;0;62
1997;61;0;0;0.9657095442564404;0.9426399895473555;0.0;34.80087014725568;0
369;1;0;0;0.4808627021167335;0.12782414854444457;0.0;0.1430722891566265;0
0;0;0;0;0;0;0;0;0
0.023069554709091836;0.0;0.35303855357228847;0;0;0
