#auto generated file!
3523;435;0;0;1.1311105250143698;1.059997913321652;0.07111261169271098;0.0;0.0;334;101
2933;426;0;0;1.2703893079206152;1.2562822490793253;0.0;38.79183400267738;334
590;9;0;0;0.4387297279567136;0.08423188488562319;0.0;0.19176706827309237;0
0;0;0;0;0;0;0;0;0
0.014107058841281377;0.0;0.3544978430710907;0;0;0
