#auto generated file!
3345;112;0;0;1.080542581849253;1.0093120365312722;0.07123054531798126;0.0;0.0;0;112
2801;105;0;0;1.2053856563604306;1.1879481280410153;0.0;46.758701472556865;0
544;7;0;0;0.43773844268416384;0.08953319035702385;0.0;0.18022088353413654;0
0;0;0;0;0;0;0;0;0
0.017437528319415675;0.0;0.34820525232713995;0;0;0
