#auto generated file!
15731;5552;55;0;3.1151017326564894;3.1068265311813077;0.008275201475185503;0.0;0.0;4128;1424
15731;5552;55;0;3.1151017326564894;3.1068265311813077;0.0;38.541666666666664;4128
0;0;0;0;0.0;0.0;0.0;0.0;0
0;0;0;0;0;0;0;0;0
0.008275201475185503;0.0;0.0;0;0;0
