#auto generated file!
18885;11382;72;0;3.300668612327373;3.292347129600399;0.008321482726960733;0.0;0.0;9373;2009
18885;11382;72;0;3.300668612327373;3.292347129600399;0.0;50.70615796519413;9373
0;0;0;0;0.0;0.0;0.0;0.0;0
0;0;0;0;0;0;0;0;0
0.008321482726960733;0.0;0.0;0;0;0
