#auto generated file!
2553;104;0;0;1.6012054542706593;1.5516582235339462;0.049547230736709975;0.0;0.0;0;104
2238;96;0;0;1.720961881884573;1.7128317120020053;0.0;2.56777108433735;0
315;8;0;0;0.7503645495089366;0.4065589626084922;0.0;0.0391566265060241;0
0;0;0;0;0;0;0;0;0
0.00813016988256492;0.0;0.34380558690044444;0;0;0
