#auto generated file!
197;3;0;0;0.2724301053242612;0.21836079158639643;0.05406931373786463;0.0;0.0;0;3
168;1;0;0;0.18313127890580308;0.17860997478457583;0.0;2.7300870147255685;0
29;2;0;0;0.7897474445760185;0.44864138547280724;0.0;0.08684738955823293;0
0;0;0;0;0;0;0;0;0
0.004521304121227392;0.0;0.3411060591032113;0;0;0
