#auto generated file!
2438;18;0;0;0.27351485744277343;0.2126752131962301;0.06083964424654205;0.0;0.0;0;18
2032;15;0;0;0.22572158730207686;0.22118042833041943;0.0;3.8939089692101745;0
406;3;0;0;0.5127166429745353;0.17010723991378918;0.0;0.11897590361445783;0
0;0;0;0;0;0;0;0;0
0.004541158971656398;0.0;0.34260940306074555;0;0;0
