#auto generated file!
76;6;0;0;1.9148524565636462;1.7498910241080707;0.1649614324555759;0.0;0.0;0;6
43;5;0;0;2.9100150811924346;2.8868503773612284;0.0;7.544344042838022;0
33;1;0;0;0.6181254002291644;0.2683985335054699;0.0;0.05622489959839357;0
0;0;0;0;0;0;0;0;0
0.02316470383120581;0.0;0.34972686672369446;0;0;0
