#auto generated file!
301;10;0;0;0.7920309731953628;0.7784573358163234;0.01357363737904334;0.0;0.0;0;10
301;10;0;0;0.7920309731953628;0.7784573358163234;0.0;2.0540495314591705;0
0;0;0;0;0.0;0.0;0.0;0.0;0
0;0;0;0;0;0;0;0;0
0.01357363737904334;0.0;0.0;0;0;0
