#auto generated file!
2939;173;3;0;1.8781282591974473;1.8276472147744793;0.05048104442296869;0.0;0.0;2;171
2616;167;3;0;2.0205002534477803;2.0069153781036393;0.0;3.8570950468540834;2
323;6;0;0;0.7250473398201526;0.37574159474635094;0.0;0.06626506024096386;0
0;0;0;0;0;0;0;0;0
0.013584875344139265;0.0;0.3493057450738018;0;0;0
