#auto generated file!
674;183;0;0;0.7876671655951152;0.696451149064245;0.09121601653086953;0.0;0.0;170;13
506;179;0;0;0.9021548307596061;0.8962348744330842;0.0;57.8815261044177;170
168;4;0;0;0.442841221706827;0.09472159527476542;0.0;0.2560240963855422;0
0;0;0;0;0;0;0;0;0
0.0059199563265212125;0.0;0.3481196264320616;0;0;0
