#auto generated file!
6.0;0.0;0.0
12.0;0.8333333333333334;0.0
18.0;3.3333333333333335;0.0
24.0;6.041666666666667;0.0
30.0;10.833333333333334;0.5
36.0;11.25;0.0
42.0;9.166666666666666;0.0
48.0;15.208333333333334;0.0
54.0;21.25;0.0
60.0;37.083333333333336;0.5
66.0;26.666666666666668;0.0
72.0;41.25;0.0
78.0;39.583333333333336;0.0
84.0;44.583333333333336;0.0
90.0;25.0;0.25
96.0;25.0;0.0
102.0;21.25;0.0
108.0;19.583333333333332;0.0
114.0;17.5;0.125
120.0;18.333333333333332;0.0
126.0;26.666666666666668;0.5
132.0;29.166666666666668;0.5
138.0;29.583333333333332;0.0
144.0;30.416666666666668;0.0
150.0;29.583333333333332;0.0
156.0;30.0;0.0
162.0;22.916666666666668;0.5
168.0;20.416666666666668;0.0
174.0;23.958333333333332;0.0
180.0;24.166666666666668;0.0
186.0;19.166666666666668;0.5
192.0;27.916666666666668;0.0
198.0;27.916666666666668;0.0
204.0;27.916666666666668;0.0
210.0;25.416666666666668;0.0
216.0;27.5;0.0
222.0;21.666666666666668;0.0
228.0;17.083333333333332;0.0
234.0;18.333333333333332;0.0
240.0;17.5;0.0
246.0;17.5;0.5
252.0;24.166666666666668;0.5
258.0;25.625;0.0
264.0;25.833333333333332;0.0
270.0;18.75;0.0
276.0;27.083333333333332;0.0
282.0;30.0;0.0
288.0;26.25;0.75
294.0;30.416666666666668;0.0
300.0;37.083333333333336;0.5
306.0;29.583333333333332;0.5
312.0;45.416666666666664;0.0
318.0;28.333333333333332;1.0
324.0;25.416666666666668;0.25
330.0;36.666666666666664;0.0
336.0;20.0;0.0
342.0;20.833333333333332;0.0
348.0;22.5;0.0
354.0;23.333333333333332;0.5
360.0;28.75;0.5
366.0;31.25;0.0
372.0;31.666666666666668;1.5
378.0;32.5;0.0
384.0;30.833333333333332;0.0
390.0;25.416666666666668;0.0
396.0;17.5;0.0
402.0;32.083333333333336;0.0
408.0;29.166666666666668;0.0
414.0;21.041666666666668;0.0
420.0;27.5;0.0
426.0;27.5;0.0
432.0;29.583333333333332;0.0
438.0;26.666666666666668;0.0
444.0;35.833333333333336;0.0
450.0;42.916666666666664;0.0
456.0;36.25;0.0
462.0;29.583333333333332;0.0
468.0;22.083333333333332;0.0
474.0;36.041666666666664;0.0
480.0;23.75;0.0
486.0;27.916666666666668;0.0
492.0;24.166666666666668;0.0
498.0;19.166666666666668;0.0
504.0;25.833333333333332;0.0
510.0;22.916666666666668;0.0
516.0;32.083333333333336;0.0
522.0;29.166666666666668;0.0
528.0;30.416666666666668;0.0
534.0;25.416666666666668;0.125
540.0;19.166666666666668;0.0
546.0;15.833333333333334;0.5
552.0;17.083333333333332;0.75
558.0;20.0;0.0
564.0;22.291666666666668;0.0
570.0;19.166666666666668;0.0
576.0;26.666666666666668;0.0
582.0;30.0;0.0
588.0;24.583333333333332;0.0
594.0;27.5;0.0
600.0;30.0;0.0
606.0;20.833333333333332;0.0
612.0;13.75;0.0
618.0;20.0;0.0
624.0;25.0;0.0
630.0;28.75;0.5
636.0;23.75;1.0
642.0;26.666666666666668;0.5
648.0;26.041666666666668;0.5
654.0;20.0;0.0
660.0;20.833333333333332;0.5
666.0;30.416666666666668;0.0
672.0;23.333333333333332;0.0
678.0;34.166666666666664;0.0
684.0;36.666666666666664;0.5
690.0;30.416666666666668;0.0
696.0;30.833333333333332;0.0
702.0;32.5;0.0
708.0;21.458333333333332;0.0
714.0;16.666666666666668;0.5
720.0;20.0;0.0
726.0;21.666666666666668;0.0
732.0;18.333333333333332;0.0
738.0;32.083333333333336;0.0
744.0;52.916666666666664;0.5
750.0;53.75;0.5
756.0;28.333333333333332;0.5
762.0;30.416666666666668;0.0
768.0;16.875;0.0
774.0;30.208333333333332;0.0
780.0;23.333333333333332;0.0
786.0;20.833333333333332;0.5
792.0;19.583333333333332;0.5
798.0;24.583333333333332;0.0
804.0;22.916666666666668;0.0
810.0;41.666666666666664;0.0
816.0;35.833333333333336;0.0
822.0;33.333333333333336;0.0
828.0;36.666666666666664;0.0
834.0;29.791666666666668;0.0
840.0;21.666666666666668;0.0
846.0;15.833333333333334;0.0
852.0;21.666666666666668;0.0
858.0;17.5;0.0
864.0;23.125;0.0
870.0;24.583333333333332;0.25
876.0;25.0;0.0
882.0;20.833333333333332;0.5
888.0;25.0;0.0
894.0;31.875;0.5
900.0;35.0;1.25
906.0;29.166666666666668;0.0
912.0;27.5;0.0
918.0;19.166666666666668;1.75
924.0;22.916666666666668;0.0
930.0;35.0;0.0
936.0;30.0;0.0
942.0;26.666666666666668;0.0
948.0;20.208333333333332;0.0
954.0;31.666666666666668;0.0
960.0;26.666666666666668;0.0
966.0;18.333333333333332;0.0
972.0;25.833333333333332;0.5
978.0;34.583333333333336;0.0
984.0;21.041666666666668;0.0
990.0;17.5;0.0
996.0;25.416666666666668;0.5
1002.0;27.916666666666668;0.5
1008.0;17.5;0.0
1014.0;15.833333333333334;0.125
1020.0;23.333333333333332;0.0
1026.0;17.083333333333332;0.5
1032.0;19.583333333333332;0.0
1038.0;33.125;0.0
1044.0;41.666666666666664;0.0
1050.0;44.166666666666664;0.0
1056.0;38.75;0.0
1062.0;23.333333333333332;0.0
1068.0;20.416666666666668;0.0
1074.0;24.375;1.0
1080.0;15.833333333333334;0.0
1086.0;18.333333333333332;0.0
1092.0;19.166666666666668;0.5
1098.0;28.333333333333332;0.5
1104.0;30.833333333333332;0.0
1110.0;27.5;0.0
1116.0;32.083333333333336;0.0
1122.0;39.583333333333336;0.0
1128.0;25.833333333333332;0.0
1134.0;11.875;0.0
1140.0;25.416666666666668;0.0
1146.0;19.583333333333332;0.0
1152.0;25.833333333333332;0.0
1158.0;29.583333333333332;0.0
1164.0;30.625;0.0
1170.0;25.833333333333332;0.0
1176.0;25.416666666666668;0.0
1182.0;26.25;0.5
1188.0;29.166666666666668;0.0
1194.0;32.708333333333336;0.0
1200.0;30.833333333333332;0.5
1206.0;26.666666666666668;0.0
1212.0;23.75;0.5
1218.0;24.166666666666668;0.0
1224.0;22.5;0.0
1230.0;24.583333333333332;0.0
1236.0;26.666666666666668;0.0
1242.0;20.0;0.0
1248.0;29.166666666666668;0.0
1254.0;31.041666666666668;0.0
1260.0;32.083333333333336;0.0
1266.0;23.75;0.0
1272.0;34.583333333333336;0.5
1278.0;43.75;1.25
1284.0;30.416666666666668;0.125
1290.0;23.75;0.25
1296.0;20.416666666666668;0.0
1302.0;18.333333333333332;0.5
1308.0;22.708333333333332;0.5
1314.0;25.833333333333332;0.0
1320.0;20.0;0.0
1326.0;21.666666666666668;0.0
1332.0;22.5;0.0
1338.0;29.166666666666668;0.0
1344.0;32.291666666666664;0.5
1350.0;43.333333333333336;0.0
1356.0;43.75;0.5
1362.0;25.0;0.0
1368.0;21.666666666666668;1.0
1374.0;28.541666666666668;0.0
1380.0;29.583333333333332;0.0
1386.0;34.583333333333336;0.5
1392.0;20.0;0.0
1398.0;30.416666666666668;0.0
1404.0;30.833333333333332;0.0
1410.0;28.75;0.0
1416.0;14.166666666666666;0.0
1422.0;38.125;0.0
1428.0;34.583333333333336;0.0
1434.0;34.166666666666664;0.0
1440.0;21.25;0.5
1446.0;20.833333333333332;0.5
1452.0;16.666666666666668;0.0
1458.0;21.041666666666668;0.0
1464.0;19.583333333333332;0.0
1470.0;29.166666666666668;0.0
1476.0;29.583333333333332;0.0
1482.0;22.5;0.0
1488.0;23.333333333333332;1.0
1494.0;32.916666666666664;0.0
