#auto generated file!
475;36;1;0;0.6405898734947264;0.5527793221717133;0.08781055132301309;0.0;0.0;32;4
360;36;1;0;0.6789676410630168;0.6731069182135568;0.0;31.405622489959836;32
115;0;0;0;0.5204507750200783;0.17610163021463818;0.0;0.12449799196787148;0
0;0;0;0;0;0;0;0;0
0.005860722849459916;0.0;0.34434914480544004;0;0;0
