#auto generated file!
246;54;1;0;2.1602653412378707;1.9783292255561147;0.18193611568175486;0.0;0.0;34;20
118;49;1;0;3.950278486523244;3.944426082395325;0.0;31.405622489959836;34
128;5;0;0;0.5100969729279172;0.16583368565746978;0.0;0.12449799196787148;0
0;0;0;0;0;0;0;0;0
0.0058524041279189335;0.0;0.34426328727044736;0;0;0
