#auto generated file!
25759;17181;86;0;2.921931022703604;2.854516110386775;0.06741491231682266;0.0;0.0;14873;2308
21127;17119;86;0;3.4601171699425115;3.45420325862384;0.0;57.8815261044177;14873
4632;62;0;0;0.4672119526007683;0.11928502644795007;0.0;0.2560240963855422;0
0;0;0;0;0;0;0;0;0
0.005913911318652096;0.0;0.347926926152813;0;0;0
