#auto generated file!
2732;25;0;0;0.3193894543953686;0.24480326624317508;0.07458618815219517;0.0;0.0;0;25
2304;20;0;0;0.2953605026955047;0.27236377761505476;0.0;7.218038821954487;0
428;5;0;0;0.44874156821893507;0.09644013960576409;0.0;0.09939759036144578;0
0;0;0;0;0;0;0;0;0
0.022996725080450642;0.0;0.35230142861317104;0;0;0
