#auto generated file!
409;27;1;0;1.0984776317703975;1.0843427784393231;0.014134853331074485;0.0;0.0;12;15
409;27;1;0;1.0984776317703975;1.0843427784393231;0.0;15.097891566265067;12
0;0;0;0;0.0;0.0;0.0;0.0;0
0;0;0;0;0;0;0;0;0
0.014134853331074485;0.0;0.0;0;0;0
