#auto generated file!
197;6;0;0;0.7203246463046021;0.5658464961896831;0.1544781501149193;0.0;0.0;0;6
118;4;0;0;0.8574520185990877;0.8344510185534887;0.0;4.721385542168675;0
79;2;0;0;0.5155014826242313;0.16463974126653041;0.0;0.12550200803212852;0
0;0;0;0;0;0;0;0;0
0.02300100004559921;0.0;0.3508617413577012;0;0;0
