#auto generated file!
23640;647;23;0;0.7593671020017305;0.74535355478996;0.01401354721176318;0.0;0.0;128;519
23640;647;23;0;0.7593671020017305;0.74535355478996;0.0;12.32848058902276;128
0;0;0;0;0.0;0.0;0.0;0.0;0
0;0;0;0;0;0;0;0;0
0.01401354721176318;0.0;0.0;0;0;0
