#auto generated file!
327;5;0;0;0.33388124295934823;0.25429759239568844;0.07958365056365987;0.0;0.0;0;5
258;5;0;0;0.2644261249576918;0.2561991918892437;0.0;11.87918340026774;0
69;0;0;0;0.5935829885307592;0.2471872638545681;0.0;0.142570281124498;0
0;0;0;0;0;0;0;0;0
0.008226933068447967;0.0;0.34639572467619123;0;0;0
