#auto generated file!
21059;18167;81;0;3.544533378681298;3.5386228245945945;0.005910554086734645;0.0;0.0;15670;2497
21059;18167;81;0;3.544533378681298;3.5386228245945945;0.0;61.108601070950485;15670
0;0;0;0;0.0;0.0;0.0;0.0;0
0;0;0;0;0;0;0;0;0
0.005910554086734645;0.0;0.0;0;0;0
