#auto generated file!
379;26;3;0;2.5900639245364467;2.452131692148036;0.13793223238840752;0.0;0.0;0;26
238;24;3;0;3.8136516269469594;3.79848437214602;0.0;43.79099732262382;0
141;2;0;0;0.524717306283241;0.1795647571159796;0.0;0.19176706827309237;0
0;0;0;0;0;0;0;0;0
0.01516725480093529;0.0;0.34515254916726135;0;0;0
