#auto generated file!
21281;9021;60;0;2.9058489166780954;2.8918738283448313;0.0139750883332685;0.0;0.0;7044;1977
21281;9021;60;0;2.9058489166780954;2.8918738283448313;0.0;44.41599732262383;7044
0;0;0;0;0.0;0.0;0.0;0.0;0
0;0;0;0;0;0;0;0;0
0.0139750883332685;0.0;0.0;0;0;0
