#auto generated file!
574;30;2;0;1.1878283110353853;1.1819252171285306;0.005903093906855757;0.0;0.0;14;16
574;30;2;0;1.1878283110353853;1.1819252171285306;0.0;16.3821954484605;14
0;0;0;0;0.0;0.0;0.0;0.0;0
0;0;0;0;0;0;0;0;0
0.005903093906855757;0.0;0.0;0;0;0
