#auto generated file!
717;10;2;0;0.7267871712743103;0.5701775510816025;0.15660962019270777;0.0;0.0;0;10
412;9;2;0;0.8936073348896527;0.8785999342703762;0.0;14.98159303882195;0
305;1;0;0;0.5014432125545689;0.15355452854463716;0.0;0.2003012048192771;0
0;0;0;0;0;0;0;0;0
0.01500740061927697;0.0;0.3478886840099323;0;0;0
