#auto generated file!
7836;154;3;0;0.6131462676629231;0.6073261218744371;0.005820145788500021;0.0;0.0;0;154
7836;154;3;0;0.6131462676629231;0.6073261218744371;0.0;3.0480254350736287;0
0;0;0;0;0.0;0.0;0.0;0.0;0
0;0;0;0;0;0;0;0;0
0.005820145788500021;0.0;0.0;0;0;0
