#auto generated file!
1708;34;0;0;0.7838130182977495;0.711667152061342;0.07214586623640985;0.0;0.0;0;34
1452;27;0;0;0.8313727773627394;0.8084508837871335;0.0;17.500836680053556;0
256;7;0;0;0.5140600098510101;0.16272192367911656;0.0;0.10943775100401607;0
0;0;0;0;0;0;0;0;0
0.022921893575608292;0.0;0.35133808617189327;0;0;0
