#auto generated file!
19573;13424;81;0;3.386304008319003;3.3721925742546164;0.014111434064385066;0.0;0.0;11116;2308
19573;13424;81;0;3.386304008319003;3.3721925742546164;0.0;53.898929049531475;11116
0;0;0;0;0.0;0.0;0.0;0.0;0
0;0;0;0;0;0;0;0;0
0.014111434064385066;0.0;0.0;0;0;0
