#auto generated file!
20998;2931;65;0;2.4048269399913766;2.3494847156255703;0.05534222436578902;0.0;0.0;1542;1389
18420;2906;65;0;2.6735907232199536;2.6597500966092795;0.0;24.544846050870145;1542
2578;25;0;0;0.48448990078640913;0.13261570176996015;0.0;0.14357429718875503;0
0;0;0;0;0;0;0;0;0
0.01384062661066311;0.0;0.3518741990164471;0;0;0
