#auto generated file!
30307;10407;88;0;2.7186028014880597;2.6554850135677506;0.0631177879203325;0.0;0.0;7880;2527
25923;10347;87;0;3.0985618425296013;3.084570808886599;0.0;41.21597501115575;7880
4384;60;1;0;0.4718696306578166;0.11826077268036116;0.0;0.2419678714859438;0
0;0;0;0;0;0;0;0;0
0.013991033643031881;0.0;0.35360885797745223;0;0;0
