#auto generated file!
2995;163;8;0;1.7630363461664047;1.7111495621831048;0.05188678398329295;0.0;0.0;0;163
2653;157;7;0;1.9010372118958332;1.8874691431153305;0.0;2.4592815707273514;0
342;6;1;0;0.6925208585051018;0.34338392413282415;0.0;0.0607429718875502;0
0;0;0;0;0;0;0;0;0
0.013568068780492699;0.0;0.34913693437227744;0;0;0
