#auto generated file!
6.0;0.0;0.0
12.0;0.5555555555555556;0.0
18.0;3.0555555555555554;0.5
24.0;7.777777777777778;0.125
30.0;8.333333333333334;0.0
36.0;10.833333333333334;0.0
42.0;8.333333333333334;0.0
48.0;13.472222222222221;0.0
54.0;19.444444444444443;0.0
60.0;23.333333333333332;0.0
66.0;20.27777777777778;0.0
72.0;27.5;0.25
78.0;32.22222222222222;0.0
84.0;25.833333333333332;0.0
90.0;20.27777777777778;0.0
96.0;20.555555555555557;0.0
102.0;15.555555555555555;0.0
108.0;21.52777777777778;0.0
114.0;20.694444444444443;0.0
120.0;14.722222222222221;0.5
126.0;18.88888888888889;0.0
132.0;19.444444444444443;0.5
138.0;24.444444444444443;0.0
144.0;28.47222222222222;0.0
150.0;28.055555555555557;0.0
156.0;30.555555555555557;0.25
162.0;20.27777777777778;0.0
168.0;21.666666666666668;0.0
174.0;28.055555555555557;0.0
180.0;21.666666666666668;0.0
186.0;20.555555555555557;0.0
192.0;11.944444444444445;0.0
198.0;19.86111111111111;0.75
204.0;23.88888888888889;0.5
210.0;23.333333333333332;0.25
216.0;25.27777777777778;0.5
222.0;28.88888888888889;0.0
228.0;22.77777777777778;0.5
234.0;26.944444444444443;0.0
240.0;20.555555555555557;0.0
246.0;12.777777777777779;0.0
252.0;18.88888888888889;0.0
258.0;20.694444444444443;0.0
264.0;25.27777777777778;0.0
270.0;20.555555555555557;0.0
276.0;22.5;0.5
282.0;20.27777777777778;0.0
288.0;23.333333333333332;0.0
294.0;31.11111111111111;0.0
300.0;28.055555555555557;1.0
306.0;15.0;0.0
312.0;18.88888888888889;0.75
318.0;15.555555555555555;0.0
324.0;24.72222222222222;0.0
330.0;28.333333333333332;0.0
336.0;24.72222222222222;0.0
342.0;15.0;0.0
348.0;15.416666666666666;0.0
354.0;15.972222222222221;0.5
360.0;22.22222222222222;0.0
366.0;26.11111111111111;0.0
372.0;25.833333333333332;0.5
378.0;32.22222222222222;0.0
384.0;22.77777777777778;0.25
390.0;25.0;0.5
396.0;26.38888888888889;0.0
402.0;19.444444444444443;0.5
408.0;22.22222222222222;0.0
414.0;21.11111111111111;0.75
420.0;25.555555555555557;0.0
426.0;17.77777777777778;0.0
432.0;22.22222222222222;0.0
438.0;15.277777777777779;0.0
444.0;24.72222222222222;0.5
450.0;34.166666666666664;0.0
456.0;22.5;0.0
462.0;25.833333333333332;0.0
468.0;19.583333333333332;0.0
474.0;18.47222222222222;0.0
480.0;26.666666666666668;0.0
486.0;18.333333333333332;0.0
492.0;20.416666666666668;0.5
498.0;22.22222222222222;0.0
504.0;18.61111111111111;0.5
510.0;24.444444444444443;0.0
516.0;33.888888888888886;0.0
522.0;27.5;0.0
528.0;16.11111111111111;0.125
534.0;26.666666666666668;0.0
540.0;16.11111111111111;0.0
546.0;19.444444444444443;0.0
552.0;20.833333333333332;0.75
558.0;18.61111111111111;0.125
564.0;21.944444444444443;0.5
570.0;21.38888888888889;0.75
576.0;24.72222222222222;1.0
582.0;18.88888888888889;0.5
588.0;23.333333333333332;0.0
594.0;19.444444444444443;0.0
600.0;20.0;0.0
606.0;18.333333333333332;0.5
612.0;18.333333333333332;0.0
618.0;15.555555555555555;0.5
624.0;15.416666666666666;0.0
630.0;22.22222222222222;0.0
636.0;23.61111111111111;0.0
642.0;20.833333333333332;0.0
648.0;20.27777777777778;0.0
654.0;19.305555555555557;0.125
660.0;18.61111111111111;0.0
666.0;21.666666666666668;0.0
672.0;30.833333333333332;0.0
678.0;21.944444444444443;0.0
684.0;23.333333333333332;0.0
690.0;18.88888888888889;0.0
696.0;21.38888888888889;0.5
702.0;26.666666666666668;0.75
708.0;22.36111111111111;0.0
714.0;15.555555555555555;0.5
720.0;15.277777777777779;0.5
726.0;17.22222222222222;0.0
732.0;20.555555555555557;0.0
738.0;21.944444444444443;0.0
744.0;29.72222222222222;0.0
750.0;28.333333333333332;0.5
756.0;24.444444444444443;0.5
762.0;20.555555555555557;0.0
768.0;20.833333333333332;0.5
774.0;20.416666666666668;0.0
780.0;18.055555555555557;0.75
786.0;14.166666666666666;0.0
792.0;16.944444444444443;0.5
798.0;20.27777777777778;0.0
804.0;33.333333333333336;0.0
810.0;21.38888888888889;0.0
816.0;21.944444444444443;0.0
822.0;19.166666666666668;0.0
828.0;25.13888888888889;0.0
834.0;25.27777777777778;0.0
840.0;15.277777777777779;0.0
846.0;21.11111111111111;1.0
852.0;21.11111111111111;0.0
858.0;19.583333333333332;0.5
864.0;19.305555555555557;0.0
870.0;23.333333333333332;0.25
876.0;23.333333333333332;1.0
882.0;16.11111111111111;0.5
888.0;19.583333333333332;0.0
894.0;23.61111111111111;0.0
900.0;26.38888888888889;0.5
906.0;20.27777777777778;0.0
912.0;21.11111111111111;0.0
918.0;20.555555555555557;0.0
924.0;22.77777777777778;0.0
930.0;20.0;0.0
936.0;28.055555555555557;0.0
942.0;16.38888888888889;0.0
948.0;17.77777777777778;0.0
954.0;16.11111111111111;0.0
960.0;14.166666666666666;0.0
966.0;18.88888888888889;0.0
972.0;22.5;0.5
978.0;23.333333333333332;0.0
984.0;18.47222222222222;0.0
990.0;26.666666666666668;0.0
996.0;22.22222222222222;0.0
1002.0;29.72222222222222;0.5
1008.0;16.38888888888889;0.0
1014.0;16.944444444444443;0.0
1020.0;18.333333333333332;0.0
1026.0;22.5;0.0
1032.0;24.444444444444443;0.0
1038.0;29.02777777777778;0.0
1044.0;30.555555555555557;0.25
1050.0;31.666666666666668;0.0
1056.0;31.666666666666668;0.0
1062.0;23.055555555555557;0.0
1068.0;18.47222222222222;0.0
1074.0;19.166666666666668;0.0
1080.0;16.11111111111111;0.0
1086.0;16.11111111111111;0.0
1092.0;11.666666666666666;0.0
1098.0;18.88888888888889;0.0
1104.0;19.444444444444443;0.25
1110.0;24.72222222222222;0.0
1116.0;25.0;0.75
1122.0;28.333333333333332;0.0
1128.0;18.88888888888889;0.5
1134.0;15.555555555555555;0.0
1140.0;16.944444444444443;0.0
1146.0;24.166666666666668;0.0
1152.0;18.333333333333332;0.5
1158.0;14.305555555555555;0.0
1164.0;17.36111111111111;0.25
1170.0;19.166666666666668;0.75
1176.0;24.444444444444443;0.5
1182.0;23.333333333333332;0.0
1188.0;19.72222222222222;0.0
1194.0;25.694444444444443;0.0
1200.0;30.555555555555557;0.0
1206.0;27.77777777777778;0.0
1212.0;20.555555555555557;0.0
1218.0;17.77777777777778;0.0
1224.0;18.333333333333332;0.0
1230.0;23.333333333333332;0.0
1236.0;20.555555555555557;0.0
1242.0;17.916666666666668;0.0
1248.0;18.47222222222222;0.0
1254.0;16.944444444444443;0.0
1260.0;26.11111111111111;0.5
1266.0;36.111111111111114;0.5
1272.0;21.944444444444443;0.0
1278.0;25.97222222222222;0.0
1284.0;23.055555555555557;0.0
1290.0;21.38888888888889;0.0
1296.0;19.72222222222222;0.75
1302.0;15.833333333333334;0.0
1308.0;18.88888888888889;0.5
1314.0;14.444444444444445;0.5
1320.0;16.11111111111111;0.0
1326.0;24.444444444444443;0.0
1332.0;22.5;0.0
1338.0;25.27777777777778;0.0
1344.0;28.055555555555557;0.0
1350.0;35.833333333333336;0.0
1356.0;28.055555555555557;0.0
1362.0;22.77777777777778;0.0
1368.0;20.555555555555557;0.0
1374.0;20.27777777777778;0.0
1380.0;18.88888888888889;0.75
1386.0;19.72222222222222;0.5
1392.0;17.5;0.0
1398.0;18.333333333333332;0.5
1404.0;22.77777777777778;0.25
1410.0;25.0;0.0
1416.0;23.055555555555557;0.0
1422.0;16.944444444444443;0.0
1428.0;18.61111111111111;0.0
1434.0;26.11111111111111;0.5
1440.0;22.77777777777778;0.5
1446.0;22.77777777777778;0.0
1452.0;13.055555555555555;0.0
1458.0;18.194444444444443;0.0
1464.0;20.416666666666668;0.0
1470.0;21.38888888888889;0.0
1476.0;17.5;0.5
1482.0;18.61111111111111;0.5
1488.0;20.833333333333332;0.0
1494.0;26.38888888888889;0.5
