#auto generated file!
464;17;0;0;0.7743853610008479;0.6946282637805428;0.07975709722030369;0.0;0.0;0;17
383;14;0;0;0.6887926472696567;0.6660473823115789;0.0;1.157128514056225;0
81;3;0;0;1.1791015259273443;0.82976996257824;0.0;0.04618473895582329;0
0;0;0;0;0;0;0;0;0
0.02274526495807694;0.0;0.3493315633491046;0;0;0
