#auto generated file!
17055;7681;69;0;3.138062245221797;3.133508366330702;0.004553878891078746;0.0;0.0;6033;1648
17055;7681;69;0;3.138062245221797;3.133508366330702;0.0;42.46485943775101;6033
0;0;0;0;0.0;0.0;0.0;0.0;0
0;0;0;0;0;0;0;0;0
0.004553878891078746;0.0;0.0;0;0;0
