#auto generated file!
13925;3804;38;0;2.932610038364623;2.928058922826114;0.004551115538521275;0.0;0.0;2729;1075
13925;3804;38;0;2.932610038364623;2.928058922826114;0.0;32.35525435073626;2729
0;0;0;0;0.0;0.0;0.0;0.0;0
0;0;0;0;0;0;0;0;0
0.004551115538521275;0.0;0.0;0;0;0
