#auto generated file!
1114;31;0;0;0.8323168141350934;0.8277950292767748;0.004521784858324877;0.0;0.0;0;31
1114;31;0;0;0.8323168141350934;0.8277950292767748;0.0;7.020582329317266;0
0;0;0;0;0.0;0.0;0.0;0.0;0
0;0;0;0;0;0;0;0;0
0.004521784858324877;0.0;0.0;0;0;0
