#auto generated file!
690;102;0;0;0.6783963500300267;0.6061396354649109;0.0722567145651157;0.0;0.0;90;12
553;100;0;0;0.7335122733587522;0.7289403086739863;0.0;45.13805220883533;90
137;2;0;0;0.4559211266666307;0.11045516623411841;0.0;0.2173694779116466;0
0;0;0;0;0;0;0;0;0
0.0045719646847660845;0.0;0.3454659604325124;0;0;0
