#auto generated file!
6.0;0.0;0.0
12.0;0.0;0.0
18.0;10.833333333333334;0.0
24.0;16.875;0.25
30.0;10.416666666666666;0.0
36.0;10.833333333333334;0.0
42.0;18.958333333333332;0.0
48.0;20.416666666666668;0.5
54.0;23.333333333333332;0.5
60.0;31.25;0.0
66.0;33.333333333333336;0.0
72.0;50.416666666666664;0.5
78.0;75.41666666666667;0.25
84.0;57.5;0.0
90.0;47.083333333333336;0.0
96.0;55.0;0.0
102.0;38.75;0.0
108.0;34.375;0.5
114.0;35.416666666666664;0.125
120.0;39.166666666666664;0.0
126.0;39.166666666666664;0.5
132.0;38.333333333333336;0.5
138.0;55.0;0.5
144.0;83.33333333333333;0.5
150.0;79.58333333333333;0.0
156.0;69.58333333333333;0.0
162.0;34.166666666666664;0.0
168.0;24.583333333333332;0.0
174.0;34.166666666666664;0.0
180.0;42.083333333333336;0.0
186.0;37.916666666666664;0.5
192.0;42.083333333333336;0.0
198.0;35.0;0.0
204.0;50.0;0.25
210.0;54.166666666666664;0.125
216.0;48.333333333333336;0.5
222.0;37.291666666666664;0.0
228.0;38.958333333333336;0.0
234.0;42.083333333333336;0.5
240.0;35.416666666666664;0.0
246.0;27.083333333333332;0.0
252.0;43.333333333333336;0.0
258.0;47.916666666666664;0.0
264.0;49.375;0.75
270.0;56.666666666666664;0.0
276.0;57.083333333333336;0.0
282.0;41.875;0.75
288.0;31.041666666666668;0.0
294.0;36.25;0.0
300.0;40.0;0.5
306.0;42.916666666666664;0.0
312.0;27.083333333333332;0.0
318.0;27.916666666666668;0.0
324.0;31.25;0.5
330.0;53.541666666666664;0.0
336.0;45.833333333333336;0.0
342.0;31.041666666666668;0.0
348.0;30.625;0.0
354.0;40.833333333333336;0.0
360.0;30.0;0.5
366.0;34.166666666666664;0.0
372.0;38.75;0.5
378.0;47.083333333333336;0.0
384.0;52.5;0.25
390.0;40.416666666666664;0.5
396.0;40.416666666666664;0.0
402.0;40.0;0.0
408.0;32.5;0.5
414.0;46.25;0.0
420.0;55.0;0.0
426.0;40.833333333333336;1.0
432.0;29.583333333333332;0.0
438.0;37.5;0.0
444.0;53.958333333333336;0.0
450.0;82.91666666666667;0.0
456.0;77.91666666666667;1.25
462.0;55.0;0.0
468.0;40.208333333333336;0.0
474.0;31.875;0.5
480.0;30.0;0.5
486.0;37.083333333333336;0.0
492.0;27.083333333333332;0.0
498.0;43.125;0.5
504.0;41.666666666666664;0.5
510.0;38.333333333333336;0.0
516.0;44.166666666666664;0.0
522.0;53.333333333333336;0.0
528.0;57.708333333333336;0.5
534.0;39.583333333333336;0.0
540.0;28.333333333333332;0.0
546.0;22.916666666666668;0.0
552.0;35.833333333333336;0.0
558.0;38.75;0.0
564.0;66.25;0.0
570.0;64.58333333333333;0.0
576.0;43.75;0.25
582.0;40.625;0.0
588.0;50.833333333333336;0.0
594.0;48.333333333333336;0.5
600.0;53.333333333333336;0.0
606.0;40.833333333333336;0.0
612.0;33.75;0.0
618.0;35.0;0.0
624.0;43.125;0.0
630.0;57.916666666666664;0.5
636.0;43.75;0.75
642.0;22.5;0.0
648.0;38.541666666666664;0.0
654.0;31.458333333333332;0.5
660.0;33.333333333333336;0.0
666.0;34.166666666666664;0.75
672.0;37.916666666666664;0.0
678.0;43.958333333333336;0.0
684.0;45.625;0.5
690.0;44.166666666666664;0.0
696.0;46.666666666666664;0.25
702.0;56.666666666666664;0.0
708.0;37.083333333333336;0.125
714.0;42.083333333333336;0.0
720.0;33.75;0.0
726.0;46.25;0.0
732.0;40.416666666666664;0.0
738.0;38.541666666666664;0.0
744.0;79.16666666666667;2.0
750.0;79.58333333333333;0.0
756.0;68.75;0.25
762.0;47.5;0.0
768.0;31.458333333333332;0.0
774.0;35.0;1.5
780.0;40.416666666666664;0.0
786.0;28.333333333333332;1.0
792.0;39.375;0.0
798.0;42.5;0.5
804.0;46.666666666666664;0.0
810.0;47.5;0.0
816.0;37.5;0.0
822.0;68.33333333333333;0.0
828.0;62.708333333333336;0.0
834.0;39.166666666666664;0.0
840.0;34.166666666666664;0.0
846.0;35.833333333333336;0.5
852.0;31.666666666666668;0.5
858.0;43.333333333333336;0.25
864.0;31.875;0.0
870.0;45.416666666666664;0.0
876.0;34.583333333333336;0.0
882.0;31.666666666666668;0.5
888.0;46.875;0.5
894.0;65.0;0.0
900.0;46.25;0.5
906.0;33.333333333333336;0.5
912.0;34.583333333333336;0.0
918.0;31.666666666666668;0.75
924.0;31.041666666666668;0.25
930.0;33.75;0.0
936.0;44.583333333333336;0.5
942.0;38.333333333333336;0.0
948.0;33.75;0.5
954.0;27.708333333333332;0.0
960.0;23.333333333333332;0.0
966.0;30.833333333333332;0.0
972.0;39.583333333333336;0.0
978.0;55.0;0.0
984.0;49.166666666666664;0.0
990.0;46.666666666666664;0.75
996.0;42.5;0.0
1002.0;48.958333333333336;0.0
1008.0;38.333333333333336;0.5
1014.0;43.541666666666664;0.0
1020.0;36.666666666666664;0.0
1026.0;34.583333333333336;0.5
1032.0;22.5;0.5
1038.0;38.333333333333336;0.0
1044.0;62.708333333333336;0.25
1050.0;70.0;0.5
1056.0;62.916666666666664;1.0
1062.0;37.5;0.0
1068.0;37.083333333333336;0.0
1074.0;25.833333333333332;0.0
1080.0;38.333333333333336;0.0
1086.0;40.0;0.0
1092.0;42.5;0.0
1098.0;49.375;0.0
1104.0;47.083333333333336;0.0
1110.0;50.416666666666664;0.0
1116.0;46.25;0.0
1122.0;43.75;0.0
1128.0;46.041666666666664;0.0
1134.0;28.75;0.5
1140.0;33.75;0.5
1146.0;36.25;0.0
1152.0;35.0;0.5
1158.0;36.458333333333336;0.5
1164.0;50.416666666666664;0.125
1170.0;40.416666666666664;0.0
1176.0;48.333333333333336;0.0
1182.0;37.5;0.5
1188.0;43.541666666666664;0.0
1194.0;57.5;0.0
1200.0;67.91666666666667;0.0
1206.0;39.166666666666664;0.0
1212.0;32.291666666666664;0.5
1218.0;42.083333333333336;0.0
1224.0;45.625;0.125
1230.0;50.416666666666664;0.0
1236.0;53.75;0.0
1242.0;44.166666666666664;0.5
1248.0;35.416666666666664;0.5
1254.0;38.75;0.0
1260.0;36.25;1.25
1266.0;32.5;0.0
1272.0;42.708333333333336;0.5
1278.0;62.916666666666664;0.0
1284.0;83.33333333333333;0.25
1290.0;50.833333333333336;0.0
1296.0;54.583333333333336;0.0
1302.0;42.916666666666664;0.0
1308.0;27.083333333333332;0.75
1314.0;23.333333333333332;0.0
1320.0;25.208333333333332;0.125
1326.0;43.333333333333336;0.0
1332.0;31.666666666666668;1.25
1338.0;41.458333333333336;0.0
1344.0;57.5;0.0
1350.0;88.33333333333333;0.0
1356.0;57.916666666666664;0.0
1362.0;43.75;0.0
1368.0;22.083333333333332;0.0
1374.0;32.291666666666664;0.125
1380.0;30.416666666666668;0.5
1386.0;45.0;0.5
1392.0;37.083333333333336;0.0
1398.0;30.0;0.5
1404.0;52.916666666666664;0.75
1410.0;56.666666666666664;0.0
1416.0;57.083333333333336;0.5
1422.0;40.416666666666664;0.0
1428.0;63.958333333333336;0.0
1434.0;53.541666666666664;0.0
1440.0;35.833333333333336;0.0
1446.0;35.833333333333336;0.5
1452.0;27.5;0.5
1458.0;44.791666666666664;0.0
1464.0;45.0;0.0
1470.0;45.833333333333336;1.0
1476.0;50.416666666666664;0.5
1482.0;38.333333333333336;0.0
1488.0;52.291666666666664;0.0
1494.0;68.95833333333333;2.0
