#auto generated file!
11418;999;21;0;2.2386715018645384;2.1859505305682445;0.05272097129627028;0.0;0.0;279;720
10097;978;21;0;2.4635529102583855;2.449821303608495;0.0;17.942603748326643;279
1321;21;0;0;0.5198012667753891;0.16906696100925225;0.0;0.10943775100401607;0
0;0;0;0;0;0;0;0;0
0.013731606649873468;0.0;0.35073430576613573;0;0;0
