#auto generated file!
256;350;2;0;3.828045653872586;3.814014833609518;0.014030820263069134;0.0;0.0;314;36
256;350;2;0;3.828045653872586;3.814014833609518;0.0;53.8520749665328;314
0;0;0;0;0.0;0.0;0.0;0.0;0
0;0;0;0;0;0;0;0;0
0.014030820263069134;0.0;0.0;0;0;0
