#auto generated file!
22439;10884;66;0;2.9075767040156997;2.8935042395375272;0.01407246447815413;0.0;0.0;8789;2095
22439;10884;66;0;2.9075767040156997;2.8935042395375272;0.0;47.17118473895582;8789
0;0;0;0;0.0;0.0;0.0;0.0;0
0;0;0;0;0;0;0;0;0
0.01407246447815413;0.0;0.0;0;0;0
