#auto generated file!
10216;162;5;0;0.6424901951026066;0.5816339782963378;0.06085621680626106;0.0;0.0;0;162
9029;154;4;0;0.6540663498842468;0.6312610660536456;0.0;3.5358099062918336;0
1187;8;1;0;0.5544353496742861;0.20414200242377034;0.0;0.10391566265060241;0
0;0;0;0;0;0;0;0;0
0.022805283830588947;0.0;0.350293347250515;0;0;0
