#auto generated file!
1554;12;0;0;0.3314839491023609;0.2578566836264086;0.0736272654759505;0.0;0.0;0;12
1314;7;0;0;0.3020785220500703;0.2791500933848657;0.0;6.079317269076309;0
240;5;0;0;0.49247866221365194;0.14127526519885658;0.0;0.12650602409638553;0
0;0;0;0;0;0;0;0;0
0.022928428665202755;0.0;0.35120339701479497;0;0;0
