#auto generated file!
180.0;79;45;26
186.0;77;45;28
192.0;79;44;27
198.0;77;50;23
204.0;80;47;23
210.0;81;50;19
216.0;82;46;22
222.0;80;42;28
228.0;82;44;24
234.0;83;45;22
240.0;76;48;26
246.0;75;45;30
252.0;76;41;33
258.0;78;45;27
264.0;80;51;19
270.0;79;46;25
276.0;80;50;20
282.0;80;52;18
288.0;79;59;12
294.0;78;60;12
300.0;72;59;19
306.0;74;60;16
312.0;78;59;13
318.0;78;60;12
324.0;81;52;17
330.0;86;48;16
336.0;85;47;18
342.0;85;46;19
348.0;86;43;21
354.0;86;43;21
360.0;86;46;18
366.0;81;45;24
372.0;80;46;24
378.0;82;42;26
384.0;77;44;29
390.0;79;45;26
396.0;79;43;28
402.0;80;44;26
408.0;78;47;25
414.0;82;43;25
420.0;78;45;27
426.0;83;43;24
432.0;79;48;23
438.0;82;46;22
444.0;89;43;18
450.0;89;49;12
456.0;91;44;15
462.0;85;47;18
468.0;85;47;18
474.0;90;42;18
480.0;93;39;18
486.0;94;38;18
492.0;94;39;17
498.0;94;32;24
504.0;99;32;19
510.0;95;35;20
516.0;95;38;17
522.0;98;38;14
528.0;95;40;15
534.0;95;39;16
540.0;92;41;17
546.0;89;42;19
552.0;92;40;18
558.0;95;41;14
564.0;98;39;13
570.0;95;40;15
576.0;91;46;13
582.0;94;48;8
588.0;89;48;13
594.0;85;50;15
600.0;79;48;23
606.0;78;51;21
612.0;78;48;24
618.0;81;46;23
624.0;86;44;20
630.0;86;45;19
636.0;84;48;18
642.0;84;48;18
648.0;87;46;17
654.0;90;47;13
660.0;90;43;17
666.0;91;37;22
672.0;97;38;15
678.0;94;37;19
684.0;94;40;16
690.0;91;35;24
696.0;91;34;25
702.0;91;34;25
708.0;90;33;27
714.0;93;34;23
720.0;89;36;25
726.0;91;34;25
732.0;89;35;26
738.0;92;35;23
744.0;94;36;20
750.0;94;38;18
756.0;97;35;18
762.0;96;33;21
768.0;95;36;19
774.0;94;38;18
780.0;92;38;20
786.0;92;36;22
792.0;92;36;22
798.0;94;36;20
804.0;90;37;23
810.0;83;38;29
816.0;85;39;26
822.0;79;43;28
828.0;75;45;30
834.0;76;41;33
840.0;80;40;30
846.0;80;41;29
852.0;88;39;23
858.0;87;39;24
864.0;83;38;29
870.0;84;39;27
876.0;92;33;25
882.0;91;35;24
888.0;89;42;19
894.0;90;41;19
900.0;91;43;16
906.0;92;42;16
912.0;90;39;21
918.0;91;41;18
924.0;92;43;15
930.0;90;40;20
936.0;91;39;20
942.0;89;43;18
948.0;87;42;21
954.0;89;45;16
960.0;87;42;21
966.0;86;47;17
972.0;87;48;15
978.0;83;50;17
984.0;82;53;15
990.0;88;44;18
996.0;87;44;19
1002.0;87;45;18
1008.0;87;43;20
1014.0;85;44;21
1020.0;82;45;23
1026.0;86;43;21
1032.0;77;44;29
1038.0;75;50;25
1044.0;76;48;26
1050.0;79;47;24
1056.0;80;46;24
1062.0;80;51;19
1068.0;81;55;14
1074.0;83;51;16
1080.0;88;45;17
1086.0;85;46;19
1092.0;89;45;16
1098.0;88;44;18
1104.0;93;35;22
1110.0;97;34;19
1116.0;98;36;16
1122.0;100;31;19
1128.0;95;31;24
1134.0;100;32;18
1140.0;98;34;18
1146.0;101;34;15
1152.0;103;31;16
1158.0;94;35;21
1164.0;90;35;25
1170.0;89;35;26
1176.0;89;33;28
1182.0;88;34;28
1188.0;88;40;22
1194.0;87;40;23
1200.0;85;41;24
1206.0;82;45;23
1212.0;78;50;22
1218.0;80;43;27
1224.0;76;46;28
1230.0;80;44;26
1236.0;82;43;25
1242.0;84;37;29
1248.0;82;41;27
1254.0;85;39;26
1260.0;81;41;28
1266.0;85;38;27
1272.0;84;45;21
1278.0;80;48;22
1284.0;82;45;23
1290.0;84;41;25
1296.0;93;35;22
1302.0;90;38;22
1308.0;92;39;19
1314.0;95;38;17
1320.0;93;40;17
1326.0;93;38;19
1332.0;91;40;19
1338.0;88;42;20
1344.0;93;34;23
1350.0;91;38;21
1356.0;89;39;22
1362.0;88;38;24
1368.0;85;40;25
1374.0;91;39;20
1380.0;88;40;22
1386.0;90;42;18
1392.0;87;38;25
1398.0;86;37;27
1404.0;91;37;22
1410.0;90;33;27
1416.0;92;34;24
1422.0;91;35;24
1428.0;93;35;22
1434.0;94;39;17
1440.0;94;37;19
1446.0;92;42;16
1452.0;98;39;13
1458.0;88;42;20
1464.0;86;43;21
1470.0;91;41;18
1476.0;90;41;19
1482.0;89;43;18
1488.0;89;42;19
1494.0;86;44;20
