#auto generated file!
7899;109;4;0;0.625814312670041;0.5699341043973181;0.05588020827271082;0.0;0.0;0;109
6909;97;4;0;0.6318962683800418;0.6182085055249932;0.0;2.608768406961178;0
990;12;0;0;0.5833696338817617;0.2330372989517523;0.0;0.07630522088353414;0
0;0;0;0;0;0;0;0;0
0.013687762855036211;0.0;0.35033233493000965;0;0;0
