#auto generated file!
6.0;0.0;0.0
12.0;0.0;0.0
18.0;2.0833333333333335;0.25
24.0;1.6666666666666667;0.625
30.0;3.75;0.0
36.0;8.333333333333334;0.5
42.0;9.166666666666666;0.0
48.0;5.833333333333333;0.0
54.0;5.0;0.0
60.0;8.75;0.5
66.0;19.583333333333332;0.0
72.0;15.0;0.0
78.0;7.916666666666667;1.25
84.0;9.583333333333334;0.0
90.0;8.75;0.0
96.0;3.3333333333333335;0.75
102.0;7.5;0.0
108.0;5.833333333333333;0.0
114.0;5.0;0.0
120.0;12.5;0.0
126.0;13.333333333333334;1.0
132.0;7.916666666666667;0.0
138.0;10.416666666666666;1.0
144.0;17.5;0.5
150.0;14.166666666666666;0.0
156.0;15.833333333333334;0.5
162.0;12.5;0.0
168.0;5.0;0.0
174.0;11.666666666666666;0.5
180.0;10.833333333333334;0.5
186.0;12.5;0.0
192.0;10.0;0.0
198.0;11.666666666666666;0.0
204.0;10.0;0.0
210.0;16.25;0.0
216.0;16.666666666666668;0.5
222.0;15.0;0.0
228.0;11.666666666666666;0.0
234.0;12.083333333333334;0.125
240.0;6.25;0.5
246.0;5.0;0.5
252.0;8.958333333333334;0.0
258.0;4.583333333333333;0.5
264.0;11.666666666666666;0.25
270.0;9.166666666666666;0.0
276.0;5.0;0.5
282.0;12.5;0.0
288.0;9.166666666666666;0.0
294.0;16.25;0.0
300.0;7.5;0.5
306.0;12.5;0.0
312.0;4.583333333333333;0.75
318.0;10.833333333333334;1.0
324.0;5.833333333333333;0.0
330.0;10.833333333333334;0.0
336.0;11.666666666666666;0.0
342.0;10.833333333333334;0.0
348.0;10.0;0.0
354.0;10.0;0.0
360.0;10.0;0.0
366.0;6.666666666666667;0.5
372.0;8.333333333333334;0.5
378.0;14.166666666666666;0.0
384.0;12.083333333333334;0.0
390.0;6.666666666666667;0.25
396.0;8.333333333333334;0.0
402.0;7.5;0.5
408.0;8.333333333333334;0.0
414.0;10.833333333333334;0.0
420.0;11.25;0.5
426.0;10.0;0.0
432.0;17.916666666666668;0.0
438.0;13.333333333333334;0.75
444.0;13.333333333333334;0.0
450.0;11.666666666666666;0.5
456.0;11.25;0.5
462.0;5.416666666666667;0.0
468.0;9.583333333333334;0.0
474.0;9.166666666666666;0.0
480.0;10.833333333333334;0.0
486.0;15.833333333333334;0.0
492.0;10.833333333333334;0.25
498.0;11.25;0.0
504.0;10.0;0.0
510.0;7.083333333333333;0.75
516.0;14.166666666666666;0.0
522.0;10.0;0.5
528.0;8.333333333333334;0.5
534.0;6.666666666666667;0.0
540.0;5.0;0.0
546.0;5.416666666666667;0.5
552.0;3.3333333333333335;0.75
558.0;13.333333333333334;0.0
564.0;10.833333333333334;0.0
570.0;11.25;0.0
576.0;10.833333333333334;0.25
582.0;10.0;0.0
588.0;12.083333333333334;0.0
594.0;16.875;0.0
600.0;14.166666666666666;0.0
606.0;7.5;0.0
612.0;11.666666666666666;0.0
618.0;10.0;0.0
624.0;17.916666666666668;0.0
630.0;6.666666666666667;0.0
636.0;16.25;0.5
642.0;14.166666666666666;0.0
648.0;8.333333333333334;0.125
654.0;6.666666666666667;0.0
660.0;10.0;0.0
666.0;9.166666666666666;0.5
672.0;11.25;0.0
678.0;8.75;0.75
684.0;8.75;0.0
690.0;8.333333333333334;0.5
696.0;9.166666666666666;0.0
702.0;8.333333333333334;0.5
708.0;6.875;0.0
714.0;12.5;0.0
720.0;9.583333333333334;0.0
726.0;6.666666666666667;0.0
732.0;7.5;0.5
738.0;9.166666666666666;0.0
744.0;11.25;0.0
750.0;17.083333333333332;0.0
756.0;10.416666666666666;0.0
762.0;9.166666666666666;0.0
768.0;10.208333333333334;0.0
774.0;7.5;0.5
780.0;8.75;0.0
786.0;9.166666666666666;0.0
792.0;8.75;0.75
798.0;5.833333333333333;0.0
804.0;7.708333333333333;0.0
810.0;10.0;0.0
816.0;6.666666666666667;0.0
822.0;14.166666666666666;0.0
828.0;7.708333333333333;0.0
834.0;11.666666666666666;0.0
840.0;6.666666666666667;0.5
846.0;8.333333333333334;0.0
852.0;9.583333333333334;0.0
858.0;7.916666666666667;0.0
864.0;15.0;0.5
870.0;20.833333333333332;0.0
876.0;10.0;0.0
882.0;12.5;0.0
888.0;10.833333333333334;0.5
894.0;11.666666666666666;0.5
900.0;16.666666666666668;0.0
906.0;7.5;0.0
912.0;11.25;0.0
918.0;9.166666666666666;0.0
924.0;7.083333333333333;0.0
930.0;9.583333333333334;0.5
936.0;9.166666666666666;1.0
942.0;11.25;1.0
948.0;5.208333333333333;0.5
954.0;9.375;0.5
960.0;10.833333333333334;0.5
966.0;6.666666666666667;0.5
972.0;16.666666666666668;0.0
978.0;10.833333333333334;0.0
984.0;11.666666666666666;0.0
990.0;12.5;0.0
996.0;2.5;0.0
1002.0;10.208333333333334;0.5
1008.0;10.0;1.0
1014.0;7.916666666666667;0.0
1020.0;7.916666666666667;0.0
1026.0;3.3333333333333335;0.5
1032.0;9.166666666666666;0.0
1038.0;7.5;0.0
1044.0;15.0;0.125
1050.0;12.083333333333334;0.0
1056.0;9.166666666666666;0.0
1062.0;5.833333333333333;0.0
1068.0;5.0;0.0
1074.0;6.666666666666667;0.625
1080.0;12.5;0.5
1086.0;7.5;0.0
1092.0;11.25;0.0
1098.0;7.083333333333333;0.0
1104.0;6.041666666666667;0.25
1110.0;9.583333333333334;0.25
1116.0;10.0;0.0
1122.0;5.833333333333333;0.5
1128.0;15.0;0.0
1134.0;5.0;0.0
1140.0;5.833333333333333;0.0
1146.0;14.583333333333334;0.0
1152.0;13.75;0.0
1158.0;5.833333333333333;0.0
1164.0;13.958333333333334;1.25
1170.0;12.916666666666666;0.0
1176.0;7.5;0.5
1182.0;7.5;0.0
1188.0;10.833333333333334;0.0
1194.0;14.166666666666666;0.0
1200.0;12.5;0.5
1206.0;9.166666666666666;0.0
1212.0;5.0;0.0
1218.0;7.916666666666667;0.0
1224.0;8.958333333333334;0.0
1230.0;8.333333333333334;0.0
1236.0;10.416666666666666;0.0
1242.0;7.5;0.0
1248.0;4.166666666666667;0.0
1254.0;9.166666666666666;0.5
1260.0;5.416666666666667;0.0
1266.0;11.666666666666666;0.5
1272.0;7.916666666666667;1.0
1278.0;10.833333333333334;0.0
1284.0;16.25;0.25
1290.0;5.0;0.0
1296.0;10.416666666666666;0.75
1302.0;9.583333333333334;0.0
1308.0;12.5;0.125
1314.0;3.3333333333333335;0.0
1320.0;10.0;0.0
1326.0;13.333333333333334;0.0
1332.0;13.333333333333334;0.5
1338.0;6.666666666666667;0.5
1344.0;14.583333333333334;0.0
1350.0;13.333333333333334;1.0
1356.0;6.25;0.0
1362.0;4.166666666666667;0.0
1368.0;9.166666666666666;0.0
1374.0;8.333333333333334;0.0
1380.0;5.0;0.75
1386.0;6.666666666666667;0.0
1392.0;13.333333333333334;0.0
1398.0;17.5;0.5
1404.0;13.75;0.5
1410.0;10.416666666666666;0.5
1416.0;16.25;0.0
1422.0;13.333333333333334;0.0
1428.0;12.5;0.0
1434.0;6.041666666666667;0.0
1440.0;4.166666666666667;0.5
1446.0;4.166666666666667;0.0
1452.0;12.5;0.0
1458.0;7.083333333333333;0.0
1464.0;11.25;0.0
1470.0;10.0;0.0
1476.0;8.75;0.0
1482.0;7.916666666666667;0.0
1488.0;11.875;0.0
1494.0;13.333333333333334;0.5
