#auto generated file!
612;10;0;0;0.6633467906599112;0.5123073000301681;0.15103949062974267;0.0;0.0;6;4
367;9;0;0;0.7658568916070082;0.7515689571267506;0.0;12.597891566265066;6
245;1;0;0;0.5097908435269128;0.15390310348140948;0.0;0.2429718875502008;0
0;0;0;0;0;0;0;0;0
0.014287934480257248;0.0;0.35588774004550305;0;0;0
