#auto generated file!
11758;169;10;0;0.5417838312304087;0.4830790187164968;0.05870481251390392;0.0;0.0;0;169
10474;149;10;0;0.5450537361882187;0.5221580521649021;0.0;3.604417670682729;0
1284;20;0;0;0.5151101672677071;0.16429880349952325;0.0;0.11144578313253012;0
0;0;0;0;0;0;0;0;0
0.02289568402331046;0.0;0.35081136376818395;0;0;0
