#auto generated file!
5226;38;0;0;0.2536336679344132;0.17783552120356755;0.07579814673084635;0.0;0.0;0;38
4404;23;0;0;0.22182956710639404;0.1983598278390139;0.0;11.32697456492636;0
822;15;0;0;0.42402936142175673;0.06787317762387773;0.0;0.24397590361445784;0
0;0;0;0;0;0;0;0;0
0.023469739267380576;0.0;0.3561561837978791;0;0;0
