#auto generated file!
827;5;0;0;0.144437869194112;0.13037162436225375;0.01406624483185879;0.0;0.0;1;4
827;5;0;0;0.144437869194112;0.13037162436225375;0.0;8.558400267737614;1
0;0;0;0;0.0;0.0;0.0;0.0;0
0;0;0;0;0;0;0;0;0
0.01406624483185879;0.0;0.0;0;0;0
