#auto generated file!
512;12;0;0;0.8209517210815303;0.8068712665296076;0.014080454551923478;0.0;0.0;0;12
512;12;0;0;0.8209517210815303;0.8068712665296076;0.0;8.558400267737614;0
0;0;0;0;0.0;0.0;0.0;0.0;0
0;0;0;0;0;0;0;0;0
0.014080454551923478;0.0;0.0;0;0;0
