#auto generated file!
6.0;0.0;0.0
12.0;0.0;0.0
18.0;2.5;0.0
24.0;1.25;0.0
30.0;3.3333333333333335;0.0
36.0;2.0833333333333335;0.0
42.0;3.3333333333333335;0.0
48.0;7.5;0.0
54.0;10.0;0.0
60.0;9.583333333333334;0.125
66.0;13.75;0.0
72.0;11.666666666666666;0.0
78.0;8.333333333333334;0.0
84.0;12.916666666666666;0.0
90.0;5.416666666666667;0.75
96.0;11.666666666666666;0.0
102.0;10.833333333333334;0.0
108.0;6.666666666666667;0.0
114.0;7.916666666666667;0.0
120.0;7.5;0.0
126.0;5.0;0.0
132.0;8.333333333333334;0.75
138.0;10.416666666666666;0.0
144.0;10.416666666666666;0.0
150.0;6.666666666666667;0.5
156.0;10.0;0.0
162.0;5.833333333333333;0.0
168.0;12.708333333333334;0.0
174.0;8.333333333333334;0.0
180.0;5.833333333333333;0.0
186.0;7.5;0.5
192.0;6.666666666666667;0.5
198.0;10.416666666666666;0.0
204.0;10.833333333333334;0.75
210.0;9.583333333333334;0.0
216.0;10.416666666666666;0.5
222.0;10.833333333333334;0.5
228.0;10.833333333333334;0.125
234.0;10.416666666666666;0.5
240.0;8.333333333333334;0.0
246.0;5.0;0.0
252.0;6.875;0.5
258.0;10.0;0.0
264.0;7.083333333333333;0.0
270.0;10.416666666666666;0.25
276.0;6.666666666666667;0.0
282.0;11.666666666666666;0.5
288.0;10.833333333333334;0.0
294.0;12.5;0.5
300.0;18.333333333333332;0.5
306.0;8.333333333333334;0.0
312.0;5.0;0.5
318.0;8.333333333333334;0.0
324.0;8.75;0.75
330.0;7.5;0.5
336.0;10.0;0.0
342.0;6.666666666666667;0.0
348.0;10.833333333333334;0.0
354.0;9.166666666666666;0.0
360.0;10.833333333333334;0.5
366.0;9.166666666666666;0.5
372.0;12.083333333333334;0.0
378.0;11.875;0.0
384.0;5.416666666666667;0.0
390.0;6.25;0.0
396.0;4.583333333333333;0.0
402.0;18.333333333333332;0.0
408.0;6.666666666666667;0.0
414.0;13.125;0.0
420.0;6.666666666666667;0.0
426.0;9.166666666666666;0.0
432.0;9.166666666666666;0.0
438.0;12.5;0.0
444.0;7.916666666666667;0.5
450.0;7.083333333333333;0.5
456.0;11.666666666666666;0.0
462.0;7.5;0.0
468.0;6.875;0.0
474.0;10.0;0.0
480.0;10.833333333333334;0.0
486.0;5.833333333333333;0.5
492.0;7.5;0.0
498.0;13.333333333333334;0.0
504.0;5.416666666666667;1.0
510.0;9.583333333333334;0.75
516.0;8.333333333333334;0.5
522.0;14.166666666666666;0.0
528.0;6.875;0.5
534.0;5.416666666666667;0.0
540.0;11.25;0.5
546.0;9.166666666666666;0.0
552.0;5.833333333333333;1.0
558.0;6.25;0.5
564.0;11.25;0.0
570.0;8.333333333333334;0.0
576.0;11.666666666666666;0.0
582.0;7.5;0.5
588.0;7.5;0.5
594.0;7.5;0.5
600.0;7.5;0.0
606.0;11.666666666666666;0.0
612.0;6.666666666666667;0.5
618.0;7.916666666666667;0.25
624.0;11.25;0.0
630.0;7.5;0.0
636.0;9.166666666666666;0.0
642.0;5.0;0.5
648.0;5.833333333333333;0.0
654.0;7.916666666666667;0.5
660.0;12.916666666666666;0.0
666.0;12.5;0.0
672.0;17.5;0.0
678.0;8.333333333333334;0.5
684.0;13.75;0.0
690.0;9.166666666666666;0.0
696.0;7.5;0.0
702.0;5.416666666666667;0.0
708.0;7.5;0.0
714.0;5.833333333333333;0.0
720.0;12.5;0.0
726.0;8.333333333333334;0.5
732.0;6.666666666666667;0.0
738.0;11.666666666666666;0.0
744.0;9.166666666666666;0.5
750.0;10.833333333333334;0.0
756.0;9.583333333333334;0.5
762.0;5.833333333333333;1.0
768.0;9.166666666666666;0.0
774.0;12.5;0.0
780.0;13.333333333333334;0.5
786.0;8.333333333333334;0.0
792.0;8.333333333333334;0.0
798.0;8.333333333333334;0.5
804.0;11.25;0.0
810.0;7.083333333333333;0.0
816.0;10.416666666666666;0.0
822.0;10.0;0.0
828.0;5.833333333333333;0.5
834.0;15.833333333333334;0.0
840.0;6.666666666666667;0.0
846.0;8.333333333333334;0.0
852.0;6.666666666666667;0.0
858.0;10.208333333333334;0.5
864.0;8.75;0.0
870.0;10.0;0.0
876.0;5.833333333333333;0.25
882.0;6.666666666666667;0.0
888.0;8.333333333333334;0.0
894.0;7.5;0.0
900.0;13.75;0.0
906.0;9.583333333333334;0.0
912.0;3.3333333333333335;0.0
918.0;10.0;0.75
924.0;8.75;0.0
930.0;8.333333333333334;0.5
936.0;6.666666666666667;0.5
942.0;5.833333333333333;0.0
948.0;10.833333333333334;1.0
954.0;8.541666666666666;0.0
960.0;8.333333333333334;0.0
966.0;10.0;0.5
972.0;15.416666666666666;0.0
978.0;5.833333333333333;0.0
984.0;11.666666666666666;0.25
990.0;16.25;0.0
996.0;10.416666666666666;0.5
1002.0;5.0;0.0
1008.0;8.333333333333334;1.0
1014.0;8.333333333333334;0.0
1020.0;9.166666666666666;0.75
1026.0;3.3333333333333335;0.0
1032.0;8.333333333333334;0.0
1038.0;8.333333333333334;0.25
1044.0;10.416666666666666;1.0
1050.0;8.333333333333334;0.0
1056.0;13.333333333333334;0.0
1062.0;6.666666666666667;0.5
1068.0;10.0;0.0
1074.0;5.833333333333333;0.0
1080.0;10.833333333333334;0.0
1086.0;15.0;0.0
1092.0;11.25;0.0
1098.0;14.583333333333334;0.0
1104.0;10.416666666666666;0.5
1110.0;12.083333333333334;0.0
1116.0;7.916666666666667;0.5
1122.0;10.0;0.0
1128.0;12.083333333333334;0.5
1134.0;8.75;0.0
1140.0;5.0;0.0
1146.0;8.333333333333334;0.5
1152.0;12.916666666666666;0.5
1158.0;9.583333333333334;0.0
1164.0;8.333333333333334;0.0
1170.0;6.666666666666667;0.0
1176.0;10.416666666666666;0.0
1182.0;8.333333333333334;0.5
1188.0;11.666666666666666;0.0
1194.0;14.583333333333334;0.0
1200.0;10.833333333333334;0.5
1206.0;5.833333333333333;0.5
1212.0;7.5;0.0
1218.0;10.833333333333334;0.0
1224.0;6.666666666666667;0.0
1230.0;7.083333333333333;0.0
1236.0;6.666666666666667;0.5
1242.0;10.416666666666666;0.5
1248.0;8.333333333333334;0.0
1254.0;8.75;0.0
1260.0;10.0;0.0
1266.0;13.333333333333334;0.5
1272.0;14.166666666666666;0.5
1278.0;17.083333333333332;0.5
1284.0;11.666666666666666;0.0
1290.0;15.833333333333334;0.0
1296.0;10.0;0.5
1302.0;15.0;0.0
1308.0;9.166666666666666;0.0
1314.0;3.75;0.0
1320.0;14.166666666666666;0.0
1326.0;10.833333333333334;1.0
1332.0;8.75;0.0
1338.0;4.375;0.5
1344.0;18.125;0.75
1350.0;12.916666666666666;0.0
1356.0;6.666666666666667;0.5
1362.0;12.5;0.0
1368.0;9.583333333333334;0.0
1374.0;8.333333333333334;0.0
1380.0;5.833333333333333;0.0
1386.0;8.75;1.0
1392.0;14.583333333333334;0.5
1398.0;16.666666666666668;0.0
1404.0;10.416666666666666;0.25
1410.0;11.666666666666666;0.5
1416.0;11.25;0.0
1422.0;10.833333333333334;0.0
1428.0;9.166666666666666;0.0
1434.0;10.0;0.0
1440.0;7.5;0.0
1446.0;8.333333333333334;0.5
1452.0;10.833333333333334;0.0
1458.0;8.541666666666666;0.5
1464.0;9.166666666666666;0.0
1470.0;13.75;0.0
1476.0;12.5;0.0
1482.0;8.333333333333334;0.0
1488.0;7.916666666666667;0.0
1494.0;10.0;0.0
