#auto generated file!
214;12;1;0;3.1073550198113007;3.09372505309716;0.013629966714142435;0.0;0.0;2;10
214;12;1;0;3.1073550198113007;3.09372505309716;0.0;7.372406291834001;2
0;0;0;0;0.0;0.0;0.0;0.0;0
0;0;0;0;0;0;0;0;0
0.013629966714142435;0.0;0.0;0;0;0
