#auto generated file!
31804;3907;68;0;2.1647895415417455;2.104685674187572;0.06010386735416574;0.0;0.0;2043;1864
27451;3850;67;0;2.4338549568277914;2.4200136377408326;0.0;23.17101740294511;2043
4353;57;1;0;0.4680023338649078;0.1161564006978989;0.0;0.19829317269076305;0
0;0;0;0;0;0;0;0;0
0.013841319086949189;0.0;0.3518459331670069;0;0;0
