#auto generated file!
15665;1037;18;0;2.004299706551436;1.951619464700469;0.05268024185096609;0.0;0.0;123;914
13850;1016;18;0;2.2025904581255626;2.1889078031028917;0.0;10.939591700133866;123
1815;21;0;0;0.49117193283150684;0.14090679975635226;0.0;0.11144578313253012;0
0;0;0;0;0;0;0;0;0
0.013682655022672593;0.0;0.35026513307515367;0;0;0
