#auto generated file!
1105;31;0;0;0.7563445003296949;0.6788344052832541;0.07751009504644231;0.0;0.0;0;31
920;29;0;0;0.7839126626333628;0.7615471298636574;0.0;18.127510040160637;0
185;2;0;0;0.6192487742790226;0.26750626142394757;0.0;0.06977911646586345;0
0;0;0;0;0;0;0;0;0
0.022365532769706414;0.0;0.351742512855075;0;0;0
