#auto generated file!
6.0;0.0;0.0
12.0;0.0;0.0
18.0;2.5;0.0
24.0;5.0;0.0
30.0;7.5;0.0
36.0;25.833333333333332;0.0
42.0;16.666666666666668;0.0
48.0;30.0;0.0
54.0;29.166666666666668;0.5
60.0;30.833333333333332;0.0
66.0;51.666666666666664;0.0
72.0;95.0;0.5
78.0;88.75;0.0
84.0;96.25;0.0
90.0;79.16666666666667;0.0
96.0;84.16666666666667;0.0
102.0;61.666666666666664;0.0
108.0;40.416666666666664;0.0
114.0;30.0;0.0
120.0;63.333333333333336;0.0
126.0;65.83333333333333;0.0
132.0;50.0;0.5
138.0;50.0;0.0
144.0;90.83333333333333;0.0
150.0;96.66666666666667;0.5
156.0;55.0;0.5
162.0;63.333333333333336;0.0
168.0;71.66666666666667;0.0
174.0;66.25;0.5
180.0;46.666666666666664;0.0
186.0;34.166666666666664;0.5
192.0;35.0;0.5
198.0;38.333333333333336;0.0
204.0;36.666666666666664;0.5
210.0;61.666666666666664;0.0
216.0;63.333333333333336;0.0
222.0;52.5;0.0
228.0;97.5;0.0
234.0;88.33333333333333;0.0
240.0;71.66666666666667;0.0
246.0;48.333333333333336;0.0
252.0;56.666666666666664;0.0
258.0;42.5;0.0
264.0;38.333333333333336;0.0
270.0;54.166666666666664;0.25
276.0;58.333333333333336;0.25
282.0;64.16666666666667;0.0
288.0;41.666666666666664;0.0
294.0;53.75;0.5
300.0;74.16666666666667;0.0
306.0;92.5;0.0
312.0;93.33333333333333;0.0
318.0;88.33333333333333;0.0
324.0;61.666666666666664;0.0
330.0;46.666666666666664;0.0
336.0;29.166666666666668;0.0
342.0;45.0;0.0
348.0;36.25;0.125
354.0;58.333333333333336;0.0
360.0;70.0;0.0
366.0;58.333333333333336;0.5
372.0;96.66666666666667;0.5
378.0;93.33333333333333;0.0
384.0;81.25;0.5
390.0;85.0;0.25
396.0;65.83333333333333;0.5
402.0;50.833333333333336;0.0
408.0;32.5;0.0
414.0;30.0;0.0
420.0;43.333333333333336;0.0
426.0;44.166666666666664;0.0
432.0;60.0;0.0
438.0;60.0;0.0
444.0;66.25;0.75
450.0;81.66666666666667;0.0
456.0;90.83333333333333;0.0
462.0;89.16666666666667;0.0
468.0;50.833333333333336;0.0
474.0;70.0;0.5
480.0;36.666666666666664;0.0
486.0;38.333333333333336;0.0
492.0;41.666666666666664;0.0
498.0;35.416666666666664;0.0
504.0;59.166666666666664;0.25
510.0;59.166666666666664;0.0
516.0;72.5;0.25
522.0;65.0;0.0
528.0;50.416666666666664;0.0
534.0;65.0;0.5
540.0;85.0;0.0
546.0;94.16666666666667;0.0
552.0;49.166666666666664;0.0
558.0;43.333333333333336;0.0
564.0;31.666666666666668;0.0
570.0;40.0;0.0
576.0;46.666666666666664;0.5
582.0;43.333333333333336;0.0
588.0;79.16666666666667;1.25
594.0;95.83333333333333;0.0
600.0;97.5;0.0
606.0;96.66666666666667;0.0
612.0;95.0;0.0
618.0;78.33333333333333;0.0
624.0;98.75;0.0
630.0;63.333333333333336;0.0
636.0;46.666666666666664;0.0
642.0;46.666666666666664;0.75
648.0;39.166666666666664;0.0
654.0;30.833333333333332;0.5
660.0;33.333333333333336;0.0
666.0;65.0;0.75
672.0;72.5;0.0
678.0;92.5;0.0
684.0;95.0;0.0
690.0;92.5;0.0
696.0;82.5;0.25
702.0;61.666666666666664;0.0
708.0;33.333333333333336;0.0
714.0;49.166666666666664;0.0
720.0;46.666666666666664;0.0
726.0;52.5;0.0
732.0;43.333333333333336;0.0
738.0;70.41666666666667;0.5
744.0;70.0;0.0
750.0;96.66666666666667;0.25
756.0;87.5;0.0
762.0;78.33333333333333;0.5
768.0;65.0;0.0
774.0;40.0;0.5
780.0;48.333333333333336;0.0
786.0;46.666666666666664;0.5
792.0;52.083333333333336;0.0
798.0;40.0;0.25
804.0;52.916666666666664;0.0
810.0;97.5;0.5
816.0;93.33333333333333;0.0
822.0;64.16666666666667;0.0
828.0;65.0;0.0
834.0;76.66666666666667;0.0
840.0;75.0;0.0
846.0;55.0;0.0
852.0;25.0;0.0
858.0;19.166666666666668;0.25
864.0;53.333333333333336;0.75
870.0;43.333333333333336;0.0
876.0;40.833333333333336;0.0
882.0;45.0;0.0
888.0;46.25;0.0
894.0;60.833333333333336;0.0
900.0;78.33333333333333;0.5
906.0;54.166666666666664;0.0
912.0;90.83333333333333;0.0
918.0;81.66666666666667;0.75
924.0;44.583333333333336;0.0
930.0;40.0;0.0
936.0;35.833333333333336;0.0
942.0;41.666666666666664;0.0
948.0;46.666666666666664;0.0
954.0;54.166666666666664;0.0
960.0;39.583333333333336;0.0
966.0;65.0;0.0
972.0;78.33333333333333;0.0
978.0;93.75;0.5
984.0;92.5;0.0
990.0;94.16666666666667;0.0
996.0;49.166666666666664;0.0
1002.0;40.833333333333336;0.75
1008.0;30.416666666666668;0.0
1014.0;27.5;0.5
1020.0;43.333333333333336;0.0
1026.0;46.666666666666664;0.0
1032.0;49.166666666666664;0.0
1038.0;54.166666666666664;0.0
1044.0;92.5;0.25
1050.0;91.66666666666667;0.0
1056.0;90.0;0.0
1062.0;83.33333333333333;0.0
1068.0;93.75;0.125
1074.0;46.666666666666664;0.0
1080.0;38.333333333333336;0.0
1086.0;33.333333333333336;0.0
1092.0;35.0;0.0
1098.0;42.5;0.5
1104.0;50.0;0.25
1110.0;55.833333333333336;0.0
1116.0;77.5;0.0
1122.0;87.5;0.0
1128.0;90.83333333333333;0.0
1134.0;90.0;0.0
1140.0;90.41666666666667;0.0
1146.0;61.666666666666664;0.0
1152.0;62.5;0.0
1158.0;27.5;0.125
1164.0;55.0;0.0
1170.0;89.16666666666667;0.25
1176.0;60.833333333333336;0.0
1182.0;57.916666666666664;0.0
1188.0;50.833333333333336;0.0
1194.0;63.75;0.0
1200.0;60.0;0.75
1206.0;95.83333333333333;0.0
1212.0;76.66666666666667;0.0
1218.0;49.166666666666664;0.5
1224.0;53.333333333333336;0.0
1230.0;45.0;0.0
1236.0;35.833333333333336;0.5
1242.0;40.0;0.5
1248.0;59.166666666666664;0.0
1254.0;59.583333333333336;0.0
1260.0;46.666666666666664;0.0
1266.0;72.5;0.0
1272.0;99.16666666666667;0.5
1278.0;95.0;0.0
1284.0;85.41666666666667;0.0
1290.0;80.0;0.0
1296.0;50.0;0.0
1302.0;68.33333333333333;0.0
1308.0;41.666666666666664;0.125
1314.0;35.833333333333336;0.0
1320.0;40.833333333333336;0.0
1326.0;35.833333333333336;0.0
1332.0;42.5;0.0
1338.0;42.5;0.0
1344.0;87.91666666666667;0.0
1350.0;92.5;0.5
1356.0;95.83333333333333;0.5
1362.0;96.66666666666667;0.0
1368.0;86.66666666666667;0.0
1374.0;65.41666666666667;0.0
1380.0;23.333333333333332;0.0
1386.0;37.5;0.0
1392.0;36.666666666666664;0.0
1398.0;40.833333333333336;0.0
1404.0;79.58333333333333;0.5
1410.0;90.41666666666667;0.0
1416.0;73.33333333333333;0.0
1422.0;74.16666666666667;0.0
1428.0;95.41666666666667;0.0
1434.0;58.333333333333336;0.0
1440.0;61.666666666666664;0.0
1446.0;65.0;0.0
1452.0;51.666666666666664;0.0
1458.0;45.416666666666664;0.0
1464.0;43.333333333333336;0.0
1470.0;84.16666666666667;0.25
1476.0;80.0;0.0
1482.0;74.16666666666667;0.0
1488.0;53.333333333333336;0.0
1494.0;62.5;0.0
