#auto generated file!
15406;12839;60;0;3.737745599399563;3.6478817103251098;0.08986388907445166;0.0;0.0;11158;1681
12368;12800;60;0;4.534443165826778;4.511213036056998;0.0;95.18406961178043;11158
3038;39;0;0;0.49431060875708205;0.13317406165761506;0.0;0.19176706827309237;0
0;0;0;0;0;0;0;0;0
0.023230129769792666;0.0;0.3611365470994673;0;0;0
