#auto generated file!
988;116;0;0;1.0543281701035427;0.9455462922025891;0.10878187790095177;0.0;0.0;94;22
740;115;0;0;1.252389083962584;1.2290634205678392;0.0;95.22255689424365;94
248;1;0;0;0.4633399593951129;0.0995677640159579;0.0;0.2073293172690763;0
0;0;0;0;0;0;0;0;0
0.023325663394742954;0.0;0.3637721953791555;0;0;0
