#auto generated file!
180.0;130;65;30
186.0;131;62;32
192.0;133;60;32
198.0;129;61;35
204.0;127;58;40
210.0;123;54;48
216.0;122;55;48
222.0;128;59;38
228.0;119;67;39
234.0;121;71;33
240.0;121;75;29
246.0;118;73;34
252.0;122;71;32
258.0;125;69;31
264.0;127;69;29
270.0;134;63;28
276.0;142;60;23
282.0;145;61;19
288.0;140;65;20
294.0;133;68;24
300.0;135;61;29
306.0;142;55;28
312.0;136;53;36
318.0;128;58;39
324.0;131;56;38
330.0;135;59;31
336.0;137;54;34
342.0;135;57;33
348.0;128;65;32
354.0;129;68;28
360.0;124;67;34
366.0;120;69;36
372.0;119;67;39
378.0;121;71;33
384.0;123;69;33
390.0;116;74;35
396.0;114;79;32
402.0;113;78;34
408.0;119;81;25
414.0;118;81;26
420.0;116;72;37
426.0;116;67;42
432.0;118;69;38
438.0;117;70;38
444.0;127;57;41
450.0;125;56;44
456.0;123;59;43
462.0;116;66;43
468.0;117;63;45
474.0;124;63;38
480.0;124;63;38
486.0;125;61;39
492.0;119;69;37
498.0;127;70;28
504.0;128;69;28
510.0;127;71;27
516.0;131;67;27
522.0;126;71;28
528.0;120;77;28
534.0;115;81;29
540.0;122;72;31
546.0;119;75;31
552.0;126;66;33
558.0;125;64;36
564.0;122;67;36
570.0;135;58;32
576.0;134;56;35
582.0;126;61;38
588.0;129;62;34
594.0;133;58;34
600.0;136;59;30
606.0;135;64;26
612.0;128;69;28
618.0;126;69;30
624.0;122;67;36
630.0;129;60;36
636.0;123;64;38
642.0;122;62;41
648.0;122;65;38
654.0;125;62;38
660.0;127;65;33
666.0;128;68;29
672.0;137;61;27
678.0;139;54;32
684.0;142;52;31
690.0;144;52;29
696.0;142;52;31
702.0;145;57;23
708.0;139;59;27
714.0;131;66;28
720.0;128;72;25
726.0;130;69;26
732.0;129;68;28
738.0;133;63;29
744.0;133;65;27
750.0;131;69;25
756.0;130;68;27
762.0;131;64;30
768.0;129;63;33
774.0;132;62;31
780.0;131;64;30
786.0;130;65;30
792.0;132;66;27
798.0;134;63;28
804.0;138;60;27
810.0;137;63;25
816.0;133;69;23
822.0;133;73;19
828.0;133;75;17
834.0;133;67;25
840.0;126;72;27
846.0;117;70;38
852.0;121;66;38
858.0;129;63;33
864.0;130;65;30
870.0;123;67;35
876.0;121;68;36
882.0;123;66;36
888.0;121;67;37
894.0;122;63;40
900.0;117;71;37
906.0;115;73;37
912.0;115;73;37
918.0;120;75;30
924.0;121;68;36
930.0;124;64;37
936.0;127;58;40
942.0;132;51;42
948.0;136;52;37
954.0;140;49;36
960.0;141;52;32
966.0;141;53;31
972.0;140;45;40
978.0;142;49;34
984.0;138;59;28
990.0;143;54;28
996.0;140;54;31
1002.0;140;60;25
1008.0;134;59;32
1014.0;127;65;33
1020.0;127;62;36
1026.0;120;68;37
1032.0;124;70;31
1038.0;121;69;35
1044.0;128;65;32
1050.0;121;75;29
1056.0;129;68;28
1062.0;128;69;28
1068.0;132;68;25
1074.0;127;71;27
1080.0;130;69;26
1086.0;125;70;30
1092.0;124;66;35
1098.0;130;63;32
1104.0;132;59;34
1110.0;128;61;36
1116.0;129;62;34
1122.0;132;66;27
1128.0;135;66;24
1134.0;130;64;31
1140.0;133;63;29
1146.0;133;67;25
1152.0;137;65;23
1158.0;134;65;26
1164.0;138;55;32
1170.0;133;61;31
1176.0;130;73;22
1182.0;127;70;28
1188.0;129;67;29
1194.0;128;66;31
1200.0;124;65;36
1206.0;126;65;34
1212.0;123;63;39
1218.0;124;61;40
1224.0;121;65;39
1230.0;122;65;38
1236.0;127;66;32
1242.0;132;58;35
1248.0;134;55;36
1254.0;133;57;35
1260.0;135;55;35
1266.0;137;59;29
1272.0;138;55;32
1278.0;132;66;27
1284.0;128;67;30
1290.0;132;72;21
1296.0;129;70;26
1302.0;121;75;29
1308.0;120;76;29
1314.0;119;71;35
1320.0;124;69;32
1326.0;121;69;35
1332.0;121;69;35
1338.0;120;72;33
1344.0;121;71;33
1350.0;120;69;36
1356.0;118;70;37
1362.0;113;73;39
1368.0;119;68;38
1374.0;118;68;39
1380.0;122;65;38
1386.0;121;72;32
1392.0;127;66;32
1398.0;129;65;31
1404.0;133;58;34
1410.0;130;61;34
1416.0;127;60;38
1422.0;127;64;34
1428.0;132;62;31
1434.0;132;61;32
1440.0;129;64;32
1446.0;125;66;34
1452.0;125;63;37
1458.0;125;63;37
1464.0;131;64;30
1470.0;130;60;35
1476.0;135;54;36
1482.0;130;60;35
1488.0;130;62;33
1494.0;131;67;27
