#auto generated file!
359;14;0;0;0.7704920416989954;0.7623606495870845;0.00813139211191114;0.0;0.0;0;14
359;14;0;0;0.7704920416989954;0.7623606495870845;0.0;3.4646921017402925;0
0;0;0;0;0.0;0.0;0.0;0.0;0
0;0;0;0;0;0;0;0;0
0.00813139211191114;0.0;0.0;0;0;0
