#auto generated file!
575;4;0;0;0.26054283207083867;0.24690837197430474;0.013634460096535272;0.0;0.0;0;4
575;4;0;0;0.26054283207083867;0.24690837197430474;0.0;2.230589022757697;0
0;0;0;0;0.0;0.0;0.0;0.0;0
0;0;0;0;0;0;0;0;0
0.013634460096535272;0.0;0.0;0;0;0
