#auto generated file!
4492;36;0;0;0.24233671714534835;0.22814349133449885;0.014193225810848252;0.0;0.0;9;27
4492;36;0;0;0.24233671714534835;0.22814349133449885;0.0;11.867469879518074;9
0;0;0;0;0.0;0.0;0.0;0.0;0
0;0;0;0;0;0;0;0;0
0.014193225810848252;0.0;0.0;0;0;0
