#auto generated file!
19611;287;6;0;0.5012478594198068;0.48739960602542404;0.013848253394377605;0.0;0.0;1;286
19611;287;6;0;0.5012478594198068;0.48739960602542404;0.0;5.965528781793844;1
0;0;0;0;0.0;0.0;0.0;0.0;0
0;0;0;0;0;0;0;0;0
0.013848253394377605;0.0;0.0;0;0;0
