#auto generated file!
643;7;0;0;0.1781150969869026;0.16421358720860993;0.013901509778292923;0.0;0.0;0;7
643;7;0;0;0.1781150969869026;0.16421358720860993;0.0;5.013386880856759;0
0;0;0;0;0.0;0.0;0.0;0.0;0
0;0;0;0;0;0;0;0;0
0.013901509778292923;0.0;0.0;0;0;0
